macbeth_neon_2.jpg 2
macbeth_neon_4.jpg 4
macbeth_neon_8.jpg 8
macbeth_neon_16.jpg 16
macbeth_neon_32.jpg 32
macbeth_neon_64.jpg 64
macbeth_neon_128.jpg 128
macbeth_neon_256.jpg 256
macbeth_neon_512.jpg 512
macbeth_neon_1024.jpg 1024
macbeth_neon_2048.jpg 2048
